litescope/dump.vcd
$date
	2018-02-28 03:48
$end
$timescale 1ps $end
$scope 1ps $end
$var wire 128 ! bus $end
$var wire 1 " capture_clk $end
$unscope  $end
$enddefinitions  $end
$dumpvars
bxxxxxxxxxxxxxxxxxxxxxxxxxxxxxxxxxxxxxxxxxxxxxxxxxxxxxxxxxxxxxxxxxxxxxxxxxxxxxxxxxxxxxxxxxxxxxxxxxxxxxxxxxxxxxxxxxxxxxxxxxxxxxxxx !
bx "
$end
#0
b11110011000000110001101101000000000000000000000000000000000000000111100000100001100000000000000001000000000000000100011011101000 !
b1 "
#1
b11110011000000110001101101000000000000000000000000000000000000000111100000100001100000000000000001000000000000000100011011101000 !
b0 "
#2
b11110001000000110001101101000000000000000000000000000000000000000111100000100001100000000000000001000000000000000100011011101100 !
b1 "
#3
b11110001000000110001101101000000000000000000000000000000000000000111100000100001100000000000000001000000000000000100011011101100 !
b0 "
#4
b11110011000000110001101101000000000000000000000000000000000000000011010000000010000000000000001101000000000000000100011011101100 !
b1 "
#5
b11110011000000110001101101000000000000000000000000000000000000000011010000000010000000000000001101000000000000000100011011101100 !
b0 "
#6
b11110000000000110001101101000000000000000000000000000000000000000011010000000010000000000000001101000000000000000100011011100000 !
b1 "
#7
b11110000000000110001101101000000000000000000000000000000000000000011010000000010000000000000001101000000000000000100011011100000 !
b0 "
#8
b11110000000000110001101101000000000000000000000000000000000000001111100000000000000000110110110101000000000000000100011011100000 !
b1 "
#9
b11110000000000110001101101000000000000000000000000000000000000001111100000000000000000110110110101000000000000000100011011100000 !
b0 "
#10
b11110000000000110001101101000000000000000000000000000000000000001111100000000000000000110110110101000000000000000100011011100000 !
b1 "
#11
b11110000000000110001101101000000000000000000000000000000000000001111100000000000000000110110110101000000000000000100011011100000 !
b0 "
#12
b11110000000000110001101101000000000000000000000000000000000000001111100000000000000000110110110101000000000000000100011011100000 !
b1 "
#13
b11110000000000110001101101000000000000000000000000000000000000001111100000000000000000110110110101000000000000000100011011100000 !
b0 "
#14
b11110000000000110001101101000000000000000000000000000000000000001111100000000000000000110110110101000000000000000100011011100000 !
b1 "
#15
b11110000000000110001101101000000000000000000000000000000000000001111100000000000000000110110110101000000000000000100011011100000 !
b0 "
#16
b11110000000000110001101101000000000000000000000000000000000000001111100000000000000000110110110101000000000000000100011011100000 !
b1 "
#17
b11110000000000110001101101000000000000000000000000000000000000001111100000000000000000110110110101000000000000000100011011100000 !
b0 "
#18
b11110000000000110001101101000000000000000000000000000000000000001111100000000000000000110110110101000000000000000100011011100000 !
b1 "
#19
b11110000000000110001101101000000000000000000000000000000000000001111100000000000000000110110110101000000000000000100011011100000 !
b0 "
#20
b11110001000000110001101101000000000000000000000000000000000000001111100000000000000000110110110101000000000000000100011011110000 !
b1 "
#21
b11110001000000110001101101000000000000000000000000000000000000001111100000000000000000110110110101000000000000000100011011110000 !
b0 "
#22
b11110011000000110001101101000000000000000000000000000000000000001110001111111111111111110101010101000000000000000100011011110000 !
b1 "
#23
b11110011000000110001101101000000000000000000000000000000000000001110001111111111111111110101010101000000000000000100011011110000 !
b0 "
#24
b11110001000000110001101101000000000000000000000000000000000000001110001111111111111111110101010101000000000000000100011011110100 !
b1 "
#25
b11110001000000110001101101000000000000000000000000000000000000001110001111111111111111110101010101000000000000000100011011110100 !
b0 "
#26
b11110011000000110001101101000000000000000000000000000000000000001111101111111111111111000100100001000000000000000100011011110100 !
b1 "
#27
b11110011000000110001101101000000000000000000000000000000000000001111101111111111111111000100100001000000000000000100011011110100 !
b0 "
#28
b11110001000000110001101101000000000000000000000000000000000000001111101111111111111111000100100001000000000000000100011011111000 !
b1 "
#29
b11110001000000110001101101000000000000000000000000000000000000001111101111111111111111000100100001000000000000000100011011111000 !
b0 "
#30
b11110011000000110001101101000000000000000000000000000000000000001110001111111111111111011100001001000000000000000100011011111000 !
b1 "
#31
b11110011000000110001101101000000000000000000000000000000000000001110001111111111111111011100001001000000000000000100011011111000 !
b0 "
#32
b11110001000000110001101101000000000000000000000000000000000000001110001111111111111111011100001001000000000000000100011011111100 !
b1 "
#33
b11110001000000110001101101000000000000000000000000000000000000001110001111111111111111011100001001000000000000000100011011111100 !
b0 "
#34
b11110011000000110001101101000000000000000000000000000000000000000111100000000011010000000000000001000000000000000100011011111100 !
b1 "
#35
b11110011000000110001101101000000000000000000000000000000000000000111100000000011010000000000000001000000000000000100011011111100 !
b0 "
#36
b11110000000000110001101101000000000000000000000000000000000000000111100000000011010000000000000001000000000000000100011011110000 !
b1 "
#37
b11110000000000110001101101000000000000000000000000000000000000000111100000000011010000000000000001000000000000000100011011110000 !
b0 "
#38
b11110000000000110001101101000000000000000000000000000000000000001110001111111111111111110101010101000000000000000100011011110000 !
b1 "
#39
b11110000000000110001101101000000000000000000000000000000000000001110001111111111111111110101010101000000000000000100011011110000 !
b0 "
#40
b11110000000000110001101101000000000000000000000000000000000000001110001111111111111111110101010101000000000000000100011011110000 !
b1 "
#41
b11110000000000110001101101000000000000000000000000000000000000001110001111111111111111110101010101000000000000000100011011110000 !
b0 "
#42
b11110000000000110001101101000000000000000000000000000000000000001110001111111111111111110101010101000000000000000100011011110000 !
b1 "
#43
b11110000000000110001101101000000000000000000000000000000000000001110001111111111111111110101010101000000000000000100011011110000 !
b0 "
#44
b11110000000000110001101101000000000000000000000000000000000000001110001111111111111111110101010101000000000000000100011011110000 !
b1 "
#45
b11110000000000110001101101000000000000000000000000000000000000001110001111111111111111110101010101000000000000000100011011110000 !
b0 "
#46
b11110000000000110001101101000000000000000000000000000000000000001110001111111111111111110101010101000000000000000100011011110000 !
b1 "
#47
b11110000000000110001101101000000000000000000000000000000000000001110001111111111111111110101010101000000000000000100011011110000 !
b0 "
#48
b11110000000000110001101101000000000000000000000000000000000000001110001111111111111111110101010101000000000000000100011011110000 !
b1 "
#49
b11110000000000110001101101000000000000000000000000000000000000001110001111111111111111110101010101000000000000000100011011110000 !
b0 "
#50
b11110000000000110001101101000000000000000000000000000000000000001110001111111111111111110101010101000000000000000100011011110000 !
b1 "
#51
b11110000000000110001101101000000000000000000000000000000000000001110001111111111111111110101010101000000000000000100011011110000 !
b0 "
#52
b11110000000000110001101101000000000000000000000000000000000000001110001111111111111111110101010101000000000000000100011011110000 !
b1 "
#53
b11110000000000110001101101000000000000000000000000000000000000001110001111111111111111110101010101000000000000000100011011110000 !
b0 "
#54
b11110001000000110001101101000000000000000000000000000000000000001110001111111111111111110101010101000000000000000011111000000000 !
b1 "
#55
b11110001000000110001101101000000000000000000000000000000000000001110001111111111111111110101010101000000000000000011111000000000 !
b0 "
#56
b11110001000000110001101101000000000000000000000000000000000000000000000000000000000000000000000001000000000000000011111000000000 !
b1 "
#57
b11110001000000110001101101000000000000000000000000000000000000000000000000000000000000000000000001000000000000000011111000000000 !
b0 "
#58
b11110001000000110001101101000000000000000000000000000000000000000000000000000000000000000000000001000000000000000011111000000000 !
b1 "
#59
b11110001000000110001101101000000000000000000000000000000000000000000000000000000000000000000000001000000000000000011111000000000 !
b0 "
#60
b11110001000000110001101101000000000000000000000000000000000010000000000000000000000000000000000001000000000000000011111000000000 !
b1 "
#61
b11110001000000110001101101000000000000000000000000000000000010000000000000000000000000000000000001000000000000000011111000000000 !
b0 "
#62
b11110001000000110001101101000000000000000000000000000000000010000000000000000000000000000000000001000000000000000011111000000000 !
b1 "
#63
b11110001000000110001101101000000000000000000000000000000000010000000000000000000000000000000000001000000000000000011111000000000 !
b0 "
#64
b11110001000000110001101101000000000000000000000000000000000010000000000000000000000000000000001101000000000000000011111000000000 !
b1 "
#65
b11110001000000110001101101000000000000000000000000000000000010000000000000000000000000000000001101000000000000000011111000000000 !
b0 "
#66
b11110001000000110001101101000000000000000000000000000000000010000101010101100001000000000000001001000000000000000011111000000000 !
b1 "
#67
b11110001000000110001101101000000000000000000000000000000000010000101010101100001000000000000001001000000000000000011111000000000 !
b0 "
#68
b11110001000000110001101101000000000000000000000000000000000010000101010101100001000000000000001001000000000000000011111000000000 !
b1 "
#69
b11110001000000110001101101000000000000000000000000000000000010000101010101100001000000000000001001000000000000000011111000000000 !
b0 "
#70
b11110001000000110001101101000000000000000000000000000000000010000101010101100001000000000000001001000000000000000011111000000000 !
b1 "
#71
b11110001000000110001101101000000000000000000000000000000000010000101010101100001000000000000001001000000000000000011111000000000 !
b0 "
#72
b11110001000000110001101101000000000000000000000000000000000010000101010101100001000000000000001001000000000000000011111000000000 !
b1 "
#73
b11110001000000110001101101000000000000000000000000000000000010000101010101100001000000000000001001000000000000000011111000000000 !
b0 "
#74
b11110001000000110001101101000000000000000000000000000000000010000101010101100001000000000000001001000000000000000011111000000000 !
b1 "
#75
b11110001000000110001101101000000000000000000000000000000000010000101010101100001000000000000001001000000000000000011111000000000 !
b0 "
#76
b11110001000000110001101101000000000000000000000000000000000010000101010101100001000000000000001001000000000000000011111000000000 !
b1 "
#77
b11110001000000110001101101000000000000000000000000000000000010000101010101100001000000000000001001000000000000000011111000000000 !
b0 "
#78
b11110001000000110001101101000000000000000000000000000000000010000101010101100001000000000000001001000000000000000011111000000000 !
b1 "
#79
b11110001000000110001101101000000000000000000000000000000000010000101010101100001000000000000001001000000000000000011111000000000 !
b0 "
#80
b11110001000000110001101101000000000000000000000000000000000010000101010101100001000000000000001001000000000000000011111000000000 !
b1 "
#81
b11110001000000110001101101000000000000000000000000000000000010000101010101100001000000000000001001000000000000000011111000000000 !
b0 "
#82
b11110001000000110001101101000000000000000000000000000000000010000101010101100001000000000000001001000000000000000011111000000000 !
b1 "
#83
b11110001000000110001101101000000000000000000000000000000000010000101010101100001000000000000001001000000000000000011111000000000 !
b0 "
#84
b11110001000000110001101101000000000000000000000000000000000010000101010101100001000000000000001001000000000000000011111000000000 !
b1 "
#85
b11110001000000110001101101000000000000000000000000000000000010000101010101100001000000000000001001000000000000000011111000000000 !
b0 "
#86
b11110001000000110001101101000000000000000000000000000000000010000101010101100001000000000000001001000000000000000011111000000000 !
b1 "
#87
b11110001000000110001101101000000000000000000000000000000000010000101010101100001000000000000001001000000000000000011111000000000 !
b0 "
#88
b11110001000000110001101101000000000000000000000000000000000010000101010101100001000000000000001001000000000000000011111000000000 !
b1 "
#89
b11110001000000110001101101000000000000000000000000000000000010000101010101100001000000000000001001000000000000000011111000000000 !
b0 "
#90
b11110001000000110001101101000000000000000000000000000000000010000101010101100001000000000000001001000000000000000011111000000000 !
b1 "
#91
b11110001000000110001101101000000000000000000000000000000000010000101010101100001000000000000001001000000000000000011111000000000 !
b0 "
#92
b11110011000000110001101101000000000000000000000000000000000010001111101111111111111111111010001001000000000000000011111000000000 !
b1 "
#93
b11110011000000110001101101000000000000000000000000000000000010001111101111111111111111111010001001000000000000000011111000000000 !
b0 "
#94
b11110001000000110001101101000000000000000000000000000000000010001111101111111111111111111010001001000000000000000011111000000100 !
b1 "
#95
b11110001000000110001101101000000000000000000000000000000000010001111101111111111111111111010001001000000000000000011111000000100 !
b0 "
#96
b11110011000000110001101101000000000000000000000000000000000010001110001111111111111111111101011101000000000000000011111000000100 !
b1 "
#97
b11110011000000110001101101000000000000000000000000000000000010001110001111111111111111111101011101000000000000000011111000000100 !
b0 "
#98
b11110001000000110001101101000000000000000000000000000000000010001110001111111111111111111101011101000000000000000011111000001000 !
b1 "
#99
b11110001000000110001101101000000000000000000000000000000000010001110001111111111111111111101011101000000000000000011111000001000 !
b0 "
#100
b11110011000000110001101101000000000000000000000000000000000010000111100000000001010000000000000001000000000000000011111000001000 !
b1 "
#101
b11110011000000110001101101000000000000000000000000000000000010000111100000000001010000000000000001000000000000000011111000001000 !
b0 "
#102
b11110001000000110001101101000000000000000000000000000000000010000111100000000001010000000000000001000000000000000011111000001100 !
b1 "
#103
b11110001000000110001101101000000000000000000000000000000000010000111100000000001010000000000000001000000000000000011111000001100 !
b0 "
#104
b11110011000000110001101101000000000000000000000000000000000010000011100000100001100010011101000001000000000000000011111000001100 !
b1 "
#105
b11110011000000110001101101000000000000000000000000000000000010000011100000100001100010011101000001000000000000000011111000001100 !
b0 "
#106
b11110000000000110001101101000000000000000000000000000000000010000011100000100001100010011101000001000000000000000011111000000000 !
b1 "
#107
b11110000000000110001101101000000000000000000000000000000000010000011100000100001100010011101000001000000000000000011111000000000 !
b0 "
#108
b11110000000000110001101101000000000000000000000000000000000010001111101111111111111111111010001001000000000000000011111000000000 !
b1 "
#109
b11110000000000110001101101000000000000000000000000000000000010001111101111111111111111111010001001000000000000000011111000000000 !
b0 "
#110
b11110000000000110001101101000000000000000000000000000000000010001111101111111111111111111010001001000000000000000011111000000000 !
b1 "
#111
b11110000000000110001101101000000000000000000000000000000000010001111101111111111111111111010001001000000000000000011111000000000 !
b0 "
#112
b11110000000000110001101101000000000000000000000000000000000010001111101111111111111111111010001001000000000000000011111000000000 !
b1 "
#113
b11110000000000110001101101000000000000000000000000000000000010001111101111111111111111111010001001000000000000000011111000000000 !
b0 "
#114
b11110000000000110001101101000000000000000000000000000000000010001111101111111111111111111010001001000000000000000011111000000000 !
b1 "
#115
b11110000000000110001101101000000000000000000000000000000000010001111101111111111111111111010001001000000000000000011111000000000 !
b0 "
#116
b11110000000000110001101101000000000000000000000000000000000010001111101111111111111111111010001001000000000000000011111000000000 !
b1 "
#117
b11110000000000110001101101000000000000000000000000000000000010001111101111111111111111111010001001000000000000000011111000000000 !
b0 "
#118
b11110000000000110001101101000000000000000000000000000000000010001111101111111111111111111010001001000000000000000011111000000000 !
b1 "
#119
b11110000000000110001101101000000000000000000000000000000000010001111101111111111111111111010001001000000000000000011111000000000 !
b0 "
#120
b11110000000000110001101101000000000000000000000000000000000010001111101111111111111111111010001001000000000000000011111000000000 !
b1 "
#121
b11110000000000110001101101000000000000000000000000000000000010001111101111111111111111111010001001000000000000000011111000000000 !
b0 "
#122
b11110001000000110001101101000000000000000000000000000000000010001111101111111111111111111010001001000000000000000000000011000000 !
b1 "
#123
b11110001000000110001101101000000000000000000000000000000000010001111101111111111111111111010001001000000000000000000000011000000 !
b0 "
#124
b11110001000000110001101101000000000000000000000000000000000010000011011110011100111111111111100001000000000000000000000011000000 !
b1 "
#125
b11110001000000110001101101000000000000000000000000000000000010000011011110011100111111111111100001000000000000000000000011000000 !
b0 "
#126
b11110001000000110001101101000000000000000000000000000000000010000011011110011100111111111111100001000000000000000000000011000000 !
b1 "
#127
b11110001000000110001101101000000000000000000000000000000000010000011011110011100111111111111100001000000000000000000000011000000 !
b0 "
#128
b11110001000000110001101101000000000000000000000000000000000010000011011110011100111111111111100001000000000000000000000011000000 !
b1 "
#129
b11110001000000110001101101000000000000000000000000000000000010000011011110011100111111111111100001000000000000000000000011000000 !
b0 "
#130
b11110001000000110001101101000000000000000000000000000000000010000011011110011100111111111111100001000000000000000000000011000000 !
b1 "
#131
b11110001000000110001101101000000000000000000000000000000000010000011011110011100111111111111100001000000000000000000000011000000 !
b0 "
#132
b11110001000000110001101101000000000000000000000000000000000010000011011110011100111111111111100001000000000000000000000011000000 !
b1 "
#133
b11110001000000110001101101000000000000000000000000000000000010000011011110011100111111111111100001000000000000000000000011000000 !
b0 "
#134
b11110001000000110001101101000000000000000000000000000000000010000011011110011100111111111111100001000000000000000000000011000000 !
b1 "
#135
b11110001000000110001101101000000000000000000000000000000000010000011011110011100111111111111100001000000000000000000000011000000 !
b0 "
#136
b11110001000000110001101101000000000000000000000000000000000010000011011110011100111111111111100001000000000000000000000011000000 !
b1 "
#137
b11110001000000110001101101000000000000000000000000000000000010000011011110011100111111111111100001000000000000000000000011000000 !
b0 "
#138
b11110001000000110001101101000000000000000000000000000000000010000011011110011100111111111111100001000000000000000000000011000000 !
b1 "
#139
b11110001000000110001101101000000000000000000000000000000000010000011011110011100111111111111100001000000000000000000000011000000 !
b0 "
#140
b11110001000000110001101101000000000000000000000000000000000010000011011110011100111111111111100001000000000000000000000011000000 !
b1 "
#141
b11110001000000110001101101000000000000000000000000000000000010000011011110011100111111111111100001000000000000000000000011000000 !
b0 "
#142
b11110001000000110001101101000000000000000000000000000000000010000011011110011100111111111111100001000000000000000000000011000000 !
b1 "
#143
b11110001000000110001101101000000000000000000000000000000000010000011011110011100111111111111100001000000000000000000000011000000 !
b0 "
#144
b11110001000000110001101101000000000000000000000000000000000010000011011110011100111111111111100001000000000000000000000011000000 !
b1 "
#145
b11110001000000110001101101000000000000000000000000000000000010000011011110011100111111111111100001000000000000000000000011000000 !
b0 "
#146
b11110001000000110001101101000000000000000000000000000000000010000011011110011100111111111111100001000000000000000000000011000000 !
b1 "
#147
b11110001000000110001101101000000000000000000000000000000000010000011011110011100111111111111100001000000000000000000000011000000 !
b0 "
#148
b11110001000000110001101101000000000000000000000000000000000010000011011110011100111111111111100001000000000000000000000011000000 !
b1 "
#149
b11110001000000110001101101000000000000000000000000000000000010000011011110011100111111111111100001000000000000000000000011000000 !
b0 "
#150
b11110001000000110001101101000000000000000000000000000000000010000011011110011100111111111111100001000000000000000000000011000000 !
b1 "
#151
b11110001000000110001101101000000000000000000000000000000000010000011011110011100111111111111100001000000000000000000000011000000 !
b0 "
#152
b11110001000000110001101101000000000000000000000000000000000010000011011110011100111111111111100001000000000000000000000011000000 !
b1 "
#153
b11110001000000110001101101000000000000000000000000000000000010000011011110011100111111111111100001000000000000000000000011000000 !
b0 "
#154
b11110001000000110001101101000000000000000000000000000000000010000011011110011100111111111111100001000000000000000000000011000000 !
b1 "
#155
b11110001000000110001101101000000000000000000000000000000000010000011011110011100111111111111100001000000000000000000000011000000 !
b0 "
#156
b11110001000000110001101101000000000000000000000000000000000010000011011110011100111111111111100001000000000000000000000011000000 !
b1 "
#157
b11110001000000110001101101000000000000000000000000000000000010000011011110011100111111111111100001000000000000000000000011000000 !
b0 "
#158
b11110001000000110001101101000000000000000000000000000000000010000011011110011100111111111111100001000000000000000000000011000000 !
b1 "
#159
b11110001000000110001101101000000000000000000000000000000000010000011011110011100111111111111100001000000000000000000000011000000 !
b0 "
#160
b11110001000000110001101101000000000000000000000000000000000010000011011110011100111111111111100001000000000000000000000011000000 !
b1 "
#161
b11110001000000110001101101000000000000000000000000000000000010000011011110011100111111111111100001000000000000000000000011000000 !
b0 "
#162
b11110001000000110001101101000000000000000000000000000000000010000011011110011100111111111111100001000000000000000000000011000000 !
b1 "
#163
b11110001000000110001101101000000000000000000000000000000000010000011011110011100111111111111100001000000000000000000000011000000 !
b0 "
#164
b11110001000000110001101101000000000000000000000000000000000010000011011110011100111111111111100001000000000000000000000011000000 !
b1 "
#165
b11110001000000110001101101000000000000000000000000000000000010000011011110011100111111111111100001000000000000000000000011000000 !
b0 "
#166
b11110011000000110001101101000000000000000000000000000000000010000101101110011101000000000000000001000000000000000000000011000000 !
b1 "
#167
b11110011000000110001101101000000000000000000000000000000000010000101101110011101000000000000000001000000000000000000000011000000 !
b0 "
#168
b11110001000000110001101101000000000000000000000000000000000010000101101110011101000000000000000001000000000000000000000011000100 !
b1 "
#169
b11110001000000110001101101000000000000000000000000000000000010000101101110011101000000000000000001000000000000000000000011000100 !
b0 "
#170
b11110011000000110001101101000000000000000000000000000000000010001111100000000000000000000001101001000000000000000000000011000100 !
b1 "
#171
b11110011000000110001101101000000000000000000000000000000000010001111100000000000000000000001101001000000000000000000000011000100 !
b0 "
#172
b11110001000000110001101101000000000000000000000000000000000010001111100000000000000000000001101001000000000000000000000011001000 !
b1 "
#173
b11110001000000110001101101000000000000000000000000000000000010001111100000000000000000000001101001000000000000000000000011001000 !
b0 "
#174
b11110011000000110001101101000000000000000000000000000000000010001111100000000000000000000011100001000000000000000000000011001000 !
b1 "
#175
b11110011000000110001101101000000000000000000000000000000000010001111100000000000000000000011100001000000000000000000000011001000 !
b0 "
#176
b11110001000000110001101101000000000000000000000000000000000010001111100000000000000000000011100001000000000000000000000011001100 !
b1 "
#177
b11110001000000110001101101000000000000000000000000000000000010001111100000000000000000000011100001000000000000000000000011001100 !
b0 "
#178
b11110011000000110001101101000000000000000000000000000000000010001110000000000000000000000010100001000000000000000000000011001100 !
b1 "
#179
b11110011000000110001101101000000000000000000000000000000000010001110000000000000000000000010100001000000000000000000000011001100 !
b0 "
#180
b11110000000000110001101101000000000000000000000000000000000010001110000000000000000000000010100001000000000000000000000011000000 !
b1 "
#181
b11110000000000110001101101000000000000000000000000000000000010001110000000000000000000000010100001000000000000000000000011000000 !
b0 "
#182
b11110000000000110001101101000000000000000000000000000000000010000101101110011101000000000000000001000000000000000000000011000000 !
b1 "
#183
b11110000000000110001101101000000000000000000000000000000000010000101101110011101000000000000000001000000000000000000000011000000 !
b0 "
#184
b11110000000000110001101101000000000000000000000000000000000010000101101110011101000000000000000001000000000000000000000011000000 !
b1 "
#185
b11110000000000110001101101000000000000000000000000000000000010000101101110011101000000000000000001000000000000000000000011000000 !
b0 "
#186
b11110000000000110001101101000000000000000000000000000000000010000101101110011101000000000000000001000000000000000000000011000000 !
b1 "
#187
b11110000000000110001101101000000000000000000000000000000000010000101101110011101000000000000000001000000000000000000000011000000 !
b0 "
#188
b11110000000000110001101101000000000000000000000000000000000010000101101110011101000000000000000001000000000000000000000011000000 !
b1 "
#189
b11110000000000110001101101000000000000000000000000000000000010000101101110011101000000000000000001000000000000000000000011000000 !
b0 "
#190
b11110000000000110001101101000000000000000000000000000000000010000101101110011101000000000000000001000000000000000000000011000000 !
b1 "
#191
b11110000000000110001101101000000000000000000000000000000000010000101101110011101000000000000000001000000000000000000000011000000 !
b0 "
#192
b11110000000000110001101101000000000000000000000000000000000010000101101110011101000000000000000001000000000000000000000011000000 !
b1 "
#193
b11110000000000110001101101000000000000000000000000000000000010000101101110011101000000000000000001000000000000000000000011000000 !
b0 "
#194
b11110000000000110001101101000000000000000000000000000000000010000101101110011101000000000000000001000000000000000000000011000000 !
b1 "
#195
b11110000000000110001101101000000000000000000000000000000000010000101101110011101000000000000000001000000000000000000000011000000 !
b0 "
#196
b11110000000000110001101101000000000000000000000000000000000010000100000000000000010001101110010001000000000000000000000011000000 !
b1 "
#197
b11110000000000110001101101000000000000000000000000000000000010000100000000000000010001101110010001000000000000000000000011000000 !
b0 "
#198
b11110001000000110001101101000000000000000000000000000000000010000100000000000000010001101110010001000000000000000000000100100000 !
b1 "
#199
b11110001000000110001101101000000000000000000000000000000000010000100000000000000010001101110010001000000000000000000000100100000 !
b0 "
#200
b11110001000000110001101101000000000000000000000000000000000010000100000000000000010001101110010001000000000000000000000100100000 !
b1 "
#201
b11110001000000110001101101000000000000000000000000000000000010000100000000000000010001101110010001000000000000000000000100100000 !
b0 "
#202
b11110001000000110001101101000000000000000000000000000000000010000011000000100000000000000000000001000000000000000000000100100000 !
b1 "
#203
b11110001000000110001101101000000000000000000000000000000000010000011000000100000000000000000000001000000000000000000000100100000 !
b0 "
#204
b11110001000000110001101101000000000000000000000000000000000010000011000000100000000000000000000001000000000000000000000100100000 !
b1 "
#205
b11110001000000110001101101000000000000000000000000000000000010000011000000100000000000000000000001000000000000000000000100100000 !
b0 "
#206
b11110001000000110001101101000000000000000000000000000000000010000011000000100000000000000000000001000000000000000000000100100000 !
b1 "
#207
b11110001000000110001101101000000000000000000000000000000000010000011000000100000000000000000000001000000000000000000000100100000 !
b0 "
#208
b11110001000000110001101101000000000000000000000000000000000010000011000000100000000000000000000001000000000000000000000100100000 !
b1 "
#209
b11110001000000110001101101000000000000000000000000000000000010000011000000100000000000000000000001000000000000000000000100100000 !
b0 "
#210
b11110001000000110001101101000000000000000000000000000000000010000011000000100000000000000000000001000000000000000000000100100000 !
b1 "
#211
b11110001000000110001101101000000000000000000000000000000000010000011000000100000000000000000000001000000000000000000000100100000 !
b0 "
#212
b11110001000000110001101101000000000000000000000000000000000010000011000000100000000000000000000001000000000000000000000100100000 !
b1 "
#213
b11110001000000110001101101000000000000000000000000000000000010000011000000100000000000000000000001000000000000000000000100100000 !
b0 "
#214
b11110001000000110001101101000000000000000000000000000000000010000011000000100000000000000000000001000000000000000000000100100000 !
b1 "
#215
b11110001000000110001101101000000000000000000000000000000000010000011000000100000000000000000000001000000000000000000000100100000 !
b0 "
#216
b11110001000000110001101101000000000000000000000000000000000010000011000000100000000000000000000001000000000000000000000100100000 !
b1 "
#217
b11110001000000110001101101000000000000000000000000000000000010000011000000100000000000000000000001000000000000000000000100100000 !
b0 "
#218
b11110001000000110001101101000000000000000000000000000000000010000011000000100000000000000000000001000000000000000000000100100000 !
b1 "
#219
b11110001000000110001101101000000000000000000000000000000000010000011000000100000000000000000000001000000000000000000000100100000 !
b0 "
#220
b11110001000000110001101101000000000000000000000000000000000010000011000000100000000000000000000001000000000000000000000100100000 !
b1 "
#221
b11110001000000110001101101000000000000000000000000000000000010000011000000100000000000000000000001000000000000000000000100100000 !
b0 "
#222
b11110001000000110001101101000000000000000000000000000000000010000011000000100000000000000000000001000000000000000000000100100000 !
b1 "
#223
b11110001000000110001101101000000000000000000000000000000000010000011000000100000000000000000000001000000000000000000000100100000 !
b0 "
#224
b11110001000000110001101101000000000000000000000000000000000010000011000000100000000000000000000001000000000000000000000100100000 !
b1 "
#225
b11110001000000110001101101000000000000000000000000000000000010000011000000100000000000000000000001000000000000000000000100100000 !
b0 "
#226
b11110011000000110001101101000000000000000000000000000000000010000011010000100001000000000000010001000000000000000000000100100000 !
b1 "
#227
b11110011000000110001101101000000000000000000000000000000000010000011010000100001000000000000010001000000000000000000000100100000 !
b0 "
#228
b11110001000000110001101101000000000000000000000000000000000010000011010000100001000000000000010001000000000000000000000100100100 !
b1 "
#229
b11110001000000110001101101000000000000000000000000000000000010000011010000100001000000000000010001000000000000000000000100100100 !
b0 "
#230
b11110011000000110001101101000000000000000000000000000000000010001110001111111111111111111111110101000000000000000000000100100100 !
b1 "
#231
b11110011000000110001101101000000000000000000000000000000000010001110001111111111111111111111110101000000000000000000000100100100 !
b0 "
#232
b11110001000000110001101101000000000000000000000000000000000010001110001111111111111111111111110101000000000000000000000100101000 !
b1 "
#233
b11110001000000110001101101000000000000000000000000000000000010001110001111111111111111111111110101000000000000000000000100101000 !
b0 "
#234
b11110011000000110001101101000000000000000000000000000000000010001110000000000000000100100011100001000000000000000000000100101000 !
b1 "
#235
b11110011000000110001101101000000000000000000000000000000000010001110000000000000000100100011100001000000000000000000000100101000 !
b0 "
#236
b11110001000000110001101101000000000000000000000000000000000010001110000000000000000100100011100001000000000000000000000100101100 !
b1 "
#237
b11110001000000110001101101000000000000000000000000000000000010001110000000000000000100100011100001000000000000000000000100101100 !
b0 "
#238
b11110011000000110001101101000000000000000000000000000000000010000011011110011100111111111100100001000000000000000000000100101100 !
b1 "
#239
b11110011000000110001101101000000000000000000000000000000000010000011011110011100111111111100100001000000000000000000000100101100 !
b0 "
#240
b11110000000000110001101101000000000000000000000000000000000010000011011110011100111111111100100001000000000000000000000100100000 !
b1 "
#241
b11110000000000110001101101000000000000000000000000000000000010000011011110011100111111111100100001000000000000000000000100100000 !
b0 "
#242
b11110000000000110001101101000000000000000000000000000000000010000011010000100001000000000000010001000000000000000000000100100000 !
b1 "
#243
b11110000000000110001101101000000000000000000000000000000000010000011010000100001000000000000010001000000000000000000000100100000 !
b0 "
#244
b11110000000000110001101101000000000000000000000000000000000010000011010000100001000000000000010001000000000000000000000100100000 !
b1 "
#245
b11110000000000110001101101000000000000000000000000000000000010000011010000100001000000000000010001000000000000000000000100100000 !
b0 "
#246
b11110000000000110001101101000000000000000000000000000000000010000011010000100001000000000000010001000000000000000000000100100000 !
b1 "
#247
b11110000000000110001101101000000000000000000000000000000000010000011010000100001000000000000010001000000000000000000000100100000 !
b0 "
#248
b11110000000000110001101101000000000000000000000000000000000010000011010000100001000000000000010001000000000000000000000100100000 !
b1 "
#249
b11110000000000110001101101000000000000000000000000000000000010000011010000100001000000000000010001000000000000000000000100100000 !
b0 "
#250
b11110001000000110001101101000000000000000000000000000000000010000011010000100001000000000000010001000000000000000000000100110000 !
b1 "
#251
b11110001000000110001101101000000000000000000000000000000000010000011010000100001000000000000010001000000000000000000000100110000 !
b0 "
#252
b11110011000000110001101101000000000000000000000000000000000010000101101110000001000000000000010001000000000000000000000100110000 !
b1 "
#253
b11110011000000110001101101000000000000000000000000000000000010000101101110000001000000000000010001000000000000000000000100110000 !
b0 "
#254
b11110001000000110001101101000000000000000000000000000000000010000101101110000001000000000000010001000000000000000000000100110100 !
b1 "
#255
b11110001000000110001101101000000000000000000000000000000000010000101101110000001000000000000010001000000000000000000000100110100 !
b0 "
#256
b11110011000000110001101101000000000000000000000000000000000010000101101110000010000000000000100001000000000000000000000100110100 !
b1 "
#257
b11110011000000110001101101000000000000000000000000000000000010000101101110000010000000000000100001000000000000000000000100110100 !
b0 "
#258
b11110001000000110001101101000000000000000000000000000000000010000101101110000010000000000000100001000000000000000000000100111000 !
b1 "
#259
b11110001000000110001101101000000000000000000000000000000000010000101101110000010000000000000100001000000000000000000000100111000 !
b0 "
#260
b11110011000000110001101101000000000000000000000000000000000010000101101110000011000000000000110001000000000000000000000100111000 !
b1 "
#261
b11110011000000110001101101000000000000000000000000000000000010000101101110000011000000000000110001000000000000000000000100111000 !
b0 "
#262
b11110001000000110001101101000000000000000000000000000000000010000101101110000011000000000000110001000000000000000000000100111100 !
b1 "
#263
b11110001000000110001101101000000000000000000000000000000000010000101101110000011000000000000110001000000000000000000000100111100 !
b0 "
#264
b11110011000000110001101101000000000000000000000000000000000010000101101110000100000000000001000001000000000000000000000100111100 !
b1 "
#265
b11110011000000110001101101000000000000000000000000000000000010000101101110000100000000000001000001000000000000000000000100111100 !
b0 "
#266
b11110000000000110001101101000000000000000000000000000000000010000101101110000100000000000001000001000000000000000000000100110000 !
b1 "
#267
b11110000000000110001101101000000000000000000000000000000000010000101101110000100000000000001000001000000000000000000000100110000 !
b0 "
